…
Let's see the proportion of questions based on the subject in a bar representation:

```bash
SELECT 
    subject, 
    COUNT(*) AS counts, 
    BAR(COUNT(*), 0, (SELECT COUNT(*) FROM 'hf://datasets/cais/mmlu/all/test-*.parquet')) AS percentage 
FROM 
    'hf://datasets/cais/mmlu/all/test-*.parquet' 
GROUP BY 
    subject 
ORDER BY 
    counts DESC;

┌──────────────────────────────┬────────┬────────────────────────────────────────────────────────────────────────────────┐
│           subject            │ counts │                                   percentage                                   │
│           varchar            │ int64  │                                    varchar                                     │
├──────────────────────────────┼────────┼────────────────────────────────────────────────────────────────────────────────┤
│ professional_law             │   1534 │ ████████▋                                                                      │
│ moral_scenarios              │    895 │ █████                                                                          │
│ miscellaneous                │    783 │ ████▍                                                                          │
│ professional_psychology      │    612 │ ███▍                                                                           │
│ high_school_psychology       │    545 │ ███                                                                            │
│ high_school_macroeconomics   │    390 │ ██▏                                                                            │
│ elementary_mathematics       │    378 │ ██▏                                                                            │
│ moral_disputes               │    346 │ █▉                                                                             │
├──────────────────────────────┴────────┴────────────────────────────────────────────────────────────────────────────────┤
│ 57 rows (8 shown)                                                                                           3 columns  │
└────────────────────────────────────────────────────────────────────────────────────────────────────────────────────────┘
…
